{
  "type": "purchasePayRepeat",
  "booster": {
    "login": "booster_login"
  },
  "boost": {
    "type": "boost_type",
    "additionals": "boost_additionals",
    "current": {
      "rank": "Master Guardean&nbsp;Elite",
      "img": "https://eloboss.net/static/boost/SILVER_4__RANK.png"
    },
    "actual": {
      "rank": "Silver Elite Master",
      "img": "https://eloboss.net/static/boost/GOLD_NOVA_1__RANK.png"
    },
    "desired": {
      "rank": "5 WINS",
      "img": "https://eloboss.net/static/boost/GLOBAL_ELITE__RANK.png"
    }
  },
  "payment": {
    "price": "1000",
    "valuta": "₽",
    "promocode": "promocode_123",
    "url": "https://example.com"
  },
  "purchase": {
    "id": "purchase_id",
    "createDate": "purchase_createDate",
    "status": "purchase_status",
    "name": "purchase_name",
    "price": "purchase_price",
    "valute": "purchase_valute",
    "url": "https://example.com"
  }
}
